Chapter 4 - Classification
…
models <- glm(default ~ student, data = Default, family = "binomial")

models %>%
  augment(newdata = data.frame(balance = c("Yes", "No")), type.predict = "response")

## # A tibble: 10,000 x 2
##    balance .fitted
##    <fct>     <dbl>
##  1 Yes      0.0292
##  2 No       0.0431
##  3 Yes      0.0292
##  4 No       0.0292
##  5 Yes      0.0292
##  6 No       0.0431
##  7 Yes      0.0292
##  8 No       0.0431
##  9 Yes      0.0292
## 10 No       0.0292
## #  with 9,990 more rows
…
